<?xml version="1.0" encoding="UTF-8" standalone="no"?>
<!-- Created with Inkscape (http://www.inkscape.org/) -->

<svg
   xmlns:dc="http://purl.org/dc/elements/1.1/"
   xmlns:cc="http://creativecommons.org/ns#"
   xmlns:rdf="http://www.w3.org/1999/02/22-rdf-syntax-ns#"
   xmlns:svg="http://www.w3.org/2000/svg"
   xmlns="http://www.w3.org/2000/svg"
   xmlns:xlink="http://www.w3.org/1999/xlink"
   xmlns:sodipodi="http://sodipodi.sourceforge.net/DTD/sodipodi-0.dtd"
   xmlns:inkscape="http://www.inkscape.org/namespaces/inkscape"
   width="210mm"
   height="297mm"
   id="svg2"
   version="1.1"
   inkscape:version="0.48.5 r10040"
   inkscape:export-filename="test.png"
   inkscape:export-xdpi="90"
   inkscape:export-ydpi="90"
   sodipodi:docname="logo.svg">
  <defs
     id="defs4">
    <linearGradient
       id="linearGradient3809">
      <stop
         style="stop-color:#ffffff;stop-opacity:0.421875;"
         offset="0"
         id="stop3811" />
      <stop
         id="stop3817"
         offset="0.49152541"
         style="stop-color:#b5c1b5;stop-opacity:0.234375;" />
      <stop
         style="stop-color:#ffffff;stop-opacity:0.390625;"
         offset="1"
         id="stop3813" />
    </linearGradient>
    <linearGradient
       id="linearGradient5689">
      <stop
         style="stop-color:#ffffff;stop-opacity:0.8671875;"
         offset="0"
         id="stop5691" />
      <stop
         id="stop5697"
         offset="0.47880408"
         style="stop-color:#a7a5a5;stop-opacity:0.5390625;" />
      <stop
         style="stop-color:#ffffff;stop-opacity:0.890625;"
         offset="1"
         id="stop5693" />
    </linearGradient>
    <marker
       inkscape:stockid="DiamondM"
       orient="auto"
       refY="0.0"
       refX="0.0"
       id="DiamondM"
       style="overflow:visible">
      <path
         id="path4215"
         d="M 0,-7.0710768 L -7.0710894,0 L 0,7.0710589 L 7.0710462,0 L 0,-7.0710768 z "
         style="fill-rule:evenodd;stroke:#000000;stroke-width:1.0pt"
         transform="scale(0.4)" />
    </marker>
    <marker
       inkscape:stockid="Arrow2Lstart"
       orient="auto"
       refY="0.0"
       refX="0.0"
       id="Arrow2Lstart"
       style="overflow:visible">
      <path
         id="path4151"
         style="fill-rule:evenodd;stroke-width:0.62500000;stroke-linejoin:round"
         d="M 8.7185878,4.0337352 L -2.2072895,0.016013256 L 8.7185884,-4.0017078 C 6.9730900,-1.6296469 6.9831476,1.6157441 8.7185878,4.0337352 z "
         transform="scale(1.1) translate(1,0)" />
    </marker>
    <marker
       inkscape:stockid="Arrow1Mstart"
       orient="auto"
       refY="0.0"
       refX="0.0"
       id="Arrow1Mstart"
       style="overflow:visible">
      <path
         id="path4139"
         d="M 0.0,0.0 L 5.0,-5.0 L -12.5,0.0 L 5.0,5.0 L 0.0,0.0 z "
         style="fill-rule:evenodd;stroke:#000000;stroke-width:1.0pt"
         transform="scale(0.4) translate(10,0)" />
    </marker>
    <marker
       inkscape:stockid="Arrow1Lstart"
       orient="auto"
       refY="0.0"
       refX="0.0"
       id="Arrow1Lstart"
       style="overflow:visible">
      <path
         id="path4133"
         d="M 0.0,0.0 L 5.0,-5.0 L -12.5,0.0 L 5.0,5.0 L 0.0,0.0 z "
         style="fill-rule:evenodd;stroke:#000000;stroke-width:1.0pt"
         transform="scale(0.8) translate(12.5,0)" />
    </marker>
    <linearGradient
       id="linearGradient3889">
      <stop
         style="stop-color:#ffffff;stop-opacity:1;"
         offset="0"
         id="stop3891" />
      <stop
         id="stop3897"
         offset="0.72881359"
         style="stop-color:#b5c9c5;stop-opacity:0.49803922;" />
      <stop
         style="stop-color:#002436;stop-opacity:0.65625;"
         offset="1"
         id="stop3893" />
    </linearGradient>
    <linearGradient
       id="linearGradient3777">
      <stop
         style="stop-color:#00ff7a;stop-opacity:0.828125;"
         offset="0"
         id="stop3779" />
      <stop
         style="stop-color:#00a300;stop-opacity:1;"
         offset="1"
         id="stop3781" />
    </linearGradient>
    <filter
       inkscape:collect="always"
       id="filter3773">
      <feGaussianBlur
         inkscape:collect="always"
         stdDeviation="0.6641141"
         id="feGaussianBlur3775" />
    </filter>
    <radialGradient
       inkscape:collect="always"
       xlink:href="#linearGradient3777"
       id="radialGradient3783"
       cx="204.55589"
       cy="262.92797"
       fx="204.55589"
       fy="262.92797"
       r="50.315964"
       gradientTransform="matrix(1,0,0,0.65870494,0,89.736018)"
       gradientUnits="userSpaceOnUse" />
    <radialGradient
       inkscape:collect="always"
       xlink:href="#linearGradient3777-4"
       id="radialGradient3783-6"
       cx="204.55589"
       cy="262.92798"
       fx="204.55589"
       fy="262.92798"
       r="50.315964"
       gradientTransform="matrix(1,0,0,0.65870494,0,89.736018)"
       gradientUnits="userSpaceOnUse" />
    <linearGradient
       id="linearGradient3777-4">
      <stop
         style="stop-color:#00ff7a;stop-opacity:0.828125;"
         offset="0"
         id="stop3779-3" />
      <stop
         style="stop-color:#00a300;stop-opacity:1;"
         offset="1"
         id="stop3781-1" />
    </linearGradient>
    <filter
       color-interpolation-filters="sRGB"
       inkscape:collect="always"
       id="filter3773-3">
      <feGaussianBlur
         inkscape:collect="always"
         stdDeviation="0.6641141"
         id="feGaussianBlur3775-9" />
    </filter>
    <radialGradient
       r="50.315964"
       fy="262.92798"
       fx="204.55589"
       cy="262.92798"
       cx="204.55589"
       gradientTransform="matrix(1,0,0,0.65870494,303.55084,107.41368)"
       gradientUnits="userSpaceOnUse"
       id="radialGradient3802"
       xlink:href="#linearGradient3777-4"
       inkscape:collect="always" />
    <linearGradient
       inkscape:collect="always"
       xlink:href="#linearGradient5689"
       id="linearGradient5695"
       x1="108.43164"
       y1="281.51712"
       x2="456.53928"
       y2="246.46742"
       gradientUnits="userSpaceOnUse" />
    <linearGradient
       inkscape:collect="always"
       xlink:href="#linearGradient3809"
       id="linearGradient3815"
       x1="38.117619"
       y1="284.55096"
       x2="281.41132"
       y2="252.28596"
       gradientUnits="userSpaceOnUse" />
  </defs>
  <sodipodi:namedview
     id="base"
     pagecolor="#ffffff"
     bordercolor="#666666"
     borderopacity="1.0"
     inkscape:pageopacity="0.0"
     inkscape:pageshadow="2"
     inkscape:zoom="0.75658574"
     inkscape:cx="-11.844406"
     inkscape:cy="901.2085"
     inkscape:document-units="px"
     inkscape:current-layer="layer1"
     showgrid="false"
     inkscape:window-width="1362"
     inkscape:window-height="747"
     inkscape:window-x="0"
     inkscape:window-y="17"
     inkscape:window-maximized="0" />
  <metadata
     id="metadata7">
    <rdf:RDF>
      <cc:Work
         rdf:about="">
        <dc:format>image/svg+xml</dc:format>
        <dc:type
           rdf:resource="http://purl.org/dc/dcmitype/StillImage" />
        <dc:title />
      </cc:Work>
    </rdf:RDF>
  </metadata>
  <g
     inkscape:label="Calque 1"
     inkscape:groupmode="layer"
     id="layer1">
    <path
       sodipodi:type="arc"
       style="fill:url(#linearGradient3815);fill-opacity:1;stroke:none"
       id="path5731-9"
       sodipodi:cx="149.50258"
       sodipodi:cy="269.49396"
       sodipodi:rx="147.03154"
       sodipodi:ry="147.41693"
       d="m 296.53412,269.49396 a 147.03154,147.41693 0 1 1 -294.0630812,0 147.03154,147.41693 0 1 1 294.0630812,0 z"
       transform="matrix(1.7304255,0,0,1.7379873,127.66798,-200.77429)" />
    <path
       sodipodi:type="arc"
       style="opacity:1;fill:none;stroke:#000000;stroke-width:3.5761771;stroke-linecap:square;stroke-linejoin:miter;stroke-miterlimit:6.7;stroke-opacity:1;stroke-dasharray:none;marker-end:none"
       id="path2985"
       sodipodi:cx="372.85715"
       sodipodi:cy="255.21933"
       sodipodi:rx="210"
       sodipodi:ry="28.571432"
       d="m 208.34511,237.46134 a 210,28.571432 0 0 1 332.32808,0.58181"
       sodipodi:start="3.8122864"
       sodipodi:end="5.6382256"
       transform="matrix(1.3448906,0,0,2.0930399,-125.2109,-247.71593)"
       sodipodi:open="true" />
    <path
       style="fill:url(#radialGradient3783);fill-opacity:1;stroke:#000000;stroke-width:3.5;stroke-linecap:butt;stroke-linejoin:miter;stroke-miterlimit:4;stroke-opacity:1;stroke-dasharray:none;filter:url(#filter3773)"
       d="m 172.89717,239.21136 68.76134,33.1693 23.81482,-43.23369 -49.0194,3.14547 z"
       id="path3755"
       inkscape:connector-curvature="0"
       sodipodi:nodetypes="ccccc"
       transform="matrix(1.3879533,0,0,1.6585744,-67.214993,-150.52993)" />
    <path
       style="fill:url(#radialGradient3802);fill-opacity:1;stroke:#000000;stroke-width:2.67623925;stroke-linecap:butt;stroke-linejoin:miter;stroke-miterlimit:4;stroke-opacity:1;stroke-dasharray:none;filter:url(#filter3773-3)"
       d="m 447.37456,266.89457 c 7.34531,9.06316 23.71361,19.71363 30.36032,27.9148 32.76484,-7.07964 57.35632,-14.69829 90.12116,-21.77793 l -30.80678,-3.43421 -33.69787,-2.1002 -34.81523,-0.61344 z"
       id="path3755-0"
       inkscape:connector-curvature="0"
       transform="matrix(1.3111757,0,0,2.7066809,-172.21749,-493.05362)"
       sodipodi:nodetypes="ccccccc" />
    <path
       sodipodi:type="arc"
       style="fill:none;stroke:#000000;stroke-width:2.88317001000000017;stroke-linecap:round;stroke-linejoin:miter;stroke-miterlimit:4;stroke-opacity:1;stroke-dasharray:none;fill-opacity:0.74400001999999998"
       id="path5731"
       sodipodi:cx="149.50258"
       sodipodi:cy="269.49396"
       sodipodi:rx="148.11174"
       sodipodi:ry="148.49243"
       d="M 17.076785,336.0007 A 148.11174,148.49243 0 0 1 271.3917,185.13418"
       sodipodi:start="2.6772002"
       sodipodi:end="5.67898"
       transform="matrix(1.7304255,0,0,1.7379873,127.00785,-201.36475)"
       sodipodi:open="true" />
  </g>
</svg>
